2 Modeling in R with Tidymodels | Modeling in R and Python
…
We would like to create a model to predict which future Major League Baseball players will make the Hall of Fame. We will use historical data to build a model and then use that model to predict who may make the Hall of Fame from the players in the eligible data.

2.2 Explore Data

library(tidyverse)

historical <- read_csv("01_data/historical_baseball.csv") %>%
  mutate(inducted = fct_rev(as.factor(inducted))) %>% 
  filter(ab > 250)

eligible <- read_csv("01_data/eligible_baseball.csv") 

historical

## # A tibble: 2,664 x 15
##    player_id inducted     g    ab     r     h   x2b   x3b    hr   rbi    sb    cs    bb    so last_year
##    <chr>     <fct>    <dbl> <dbl> <dbl> <dbl> <dbl> <dbl> <dbl> <dbl> <dbl> <dbl> <dbl> <dbl>     <dbl>
##  1 aaronha01 1         3298 12364  2174  3771   624    98   755  2297   240    73  1402  1383      1976
##  2 aaronto01 0          437   944   102   216    42     6    13    94     9     8    86   145      1971
##  3 abbated01 0          855  3044   355   772    99    43    11   324   142     0   289    16      1910
##  4 adairje01 0         1165  4019   378  1022   163    19    57   366    29    29   208   499      1970
##  5 adamsba01 0          482  1019    79   216    31    15     3    75     1     1    53   177      1926
##  6 adamsbe01 0          267   678    37   137    17     4     2    45     9     0    23    79      1919
##  7 adamsbo03 0         1281  4019   591  1082   188    49    37   303    67    30   414   447      1959
##  8 adamssp01 0         1424  5557   844  1588   249    48     9   394   154    50   453   223      1934
##  9 adcocjo01 0         1959  6606   823  1832   295    35   336  1122    20    25   594  1059      1966
## 10 ageeto01  0         1129  3912   558   999   170    27   130   433   167    81   342   918      1973
## # ... with 2,654 more rows
…
data_split <- initial_split(historical, prop = 2/3, strata = inducted)

data_split

## <Analysis/Assess/Total>
## <1776/888/2664>

We can extract the data from the rsplit object.

train_data <- training(data_split)
test_data <- testing(data_split)

train_data

## # A tibble: 1,776 x 15
##    player_id inducted     g    ab     r     h   x2b   x3b    hr   rbi    sb    cs    bb    so last_year
##    <chr>     <fct>    <dbl> <dbl> <dbl> <dbl> <dbl> <dbl> <dbl> <dbl> <dbl> <dbl> <dbl> <dbl>     <dbl>
##  1 aaronha01 1         3298 12364  2174  3771   624    98   755  2297   240    73  1402  1383      1976
##  2 aaronto01 0          437   944   102   216    42     6    13    94     9     8    86   145      1971
##  3 abbated01 0          855  3044   355   772    99    43    11   324   142     0   289    16      1910
##  4 adairje01 0         1165  4019   378  1022   163    19    57   366    29    29   208   499      1970
##  5 adamsbe01 0          267   678    37   137    17     4     2    45     9     0    23    79      1919
##  6 adamssp01 0         1424  5557   844  1588   249    48     9   394   154    50   453   223      1934
##  7 ageeto01  0         1129  3912   558   999   170    27   130   433   167    81   342   918      1973
##  8 aguaylu01 0          568  1104   142   260    43    10    37   109     7     5    94   220      1989
##  9 aguirha01 0          447   388    14    33     7     1     0    21     1     0    14   236      1970
## 10 ainsmed01 0         1078  3048   299   707   108    54    22   317    86    16   263   315      1924
## # ... with 1,766 more rows
…
2.7 Specify Grid of Training Parameters

This step not only executes the model building procedure, but also tunes the penalty hyperparameter by running the model with every penalty option in a specified search grid.

First, we specify the parameters and search grids that we’ll use for tuning.

lr_reg_grid <- tibble(penalty = 10^seq(-4, -1, length.out = 30))

lr_reg_grid

## # A tibble: 30 x 1
##     penalty
##       <dbl>
##  1 0.0001  
##  2 0.000127
##  3 0.000161
##  4 0.000204
##  5 0.000259
##  6 0.000329
##  7 0.000418
##  8 0.000530
##  9 0.000672
## 10 0.000853
## # ... with 20 more rows
…
2.10.3 Update Tuning Parameters

rf_reg_grid <- dials::grid_latin_hypercube(mtry(c(1,10)), min_n(), trees(), size = 30)

rf_reg_grid

## # A tibble: 30 x 3
##     mtry min_n trees
##    <int> <int> <int>
##  1     7    36  1267
##  2     7     4   111
##  3     9     5  1244
##  4     2    27   795
##  5     8    13  1934
##  6     4    24   832
##  7     2    22  1795
##  8    10    16   199
##  9     6    10   537
## 10     6     7    40
## # ... with 20 more rows
…
